{
    "asset": {
        "ancestors": [
            "projects/325783050894",
            "folders/511331465809",
            "folders/867740215857",
            "organizations/167600783936"
        ],
        "ancestorsDisplayName": [
            "projects_325783050894",
            "folders_511331465809",
            "folders_867740215857",
            "organizations_167600783936"
        ],
        "ancestryPath": "organization/167600783936/folder/867740215857/folder/511331465809/project/325783050894",
        "ancestryPathDisplayName": "organization_167600783936/folder_867740215857/folder_511331465809/project_325783050894",
        "ancestry_path": "organization/167600783936/folder/867740215857/folder/511331465809/project/325783050894",
        "assetType": "cloudresourcemanager.googleapis.com/Project",
        "asset_type": "cloudresourcemanager.googleapis.com/Project",
        "iamPolicy": null,
        "iam_policy": null,
        "name": "//cloudresourcemanager.googleapis.com/projects/325783050894",
        "owner": "",
        "projectID": "",
        "resource": {
            "version": "v1",
            "discovery_document_uri": "https://cloudresourcemanager.googleapis.com/$discovery/rest?version=v1",
            "discovery_name": "Project",
            "parent": "//cloudresourcemanager.googleapis.com/folders/511331465809",
            "data": {
                "createTime": "2021-06-21T12:22:00.129Z",
                "lifecycleState": "ACTIVE",
                "name": "brunore-opt-front-us-dev-001",
                "parent": {
                    "id": "511331465809",
                    "type": "folder"
                },
                "projectId": "brunore-opt-front-us-dev-001",
                "projectNumber": "325783050894"
            }
        },
        "update_time": "2021-06-21T12:22:02.335476Z",
        "violationResolver": ""
    },
    "deleted": false,
    "origin": "scheduled",
    "window": {
        "startTime": "2021-06-21T12:22:02.335476Z"
    }
}