{
    "asset": {
        "ancestors": [
            "projects/325783050894",
            "folders/511331465809",
            "folders/867740215857",
            "organizations/167600783936"
        ],
        "ancestorsDisplayName": [
            "projects_325783050894",
            "folders_511331465809",
            "folders_867740215857",
            "organizations_167600783936"
        ],
        "ancestryPath": "organization/167600783936/folder/867740215857/folder/511331465809/project/325783050894",
        "ancestryPathDisplayName": "organization_167600783936/folder_867740215857/folder_511331465809/project_325783050894",
        "ancestry_path": "organization/167600783936/folder/867740215857/folder/511331465809/project/325783050894",
        "assetType": "cloudresourcemanager.googleapis.com/Project",
        "asset_type": "cloudresourcemanager.googleapis.com/Project",
        "iamPolicy": null,
        "iam_policy": null,
        "name": "//cloudresourcemanager.googleapis.com/projects/325783050894",
        "owner": "",
        "projectID": "",
        "resource": {
            "version": "v1",
            "discovery_document_uri": "https://cloudresourcemanager.googleapis.com/$discovery/rest?version=v1",
            "discovery_name": "Project",
            "parent": "//cloudresourcemanager.googleapis.com/folders/511331465809",
            "data": {
                "createTime": "2021-06-21T12:22:00.129Z",
                "lifecycleState": "ACTIVE",
                "name": "brunore-opt-front-us-dev-001",
                "parent": {
                    "id": "511331465809",
                    "type": "folder"
                },
                "projectId": "brunore-opt-front-us-dev-001",
                "projectNumber": "325783050894"
            }
        },
        "update_time": "2021-06-21T12:22:02.335476Z",
        "violationResolver": ""
    },
    "deleted": false,
    "origin": "scheduled",
    "step_stack": [
        {
            "step_id": "launch/brunore-ram-qa-100/ram/launch-00040-som/caiexport/4d98f24c-154b-4c04-8e73-1ee82c6fdddf",
            "step_timestamp": "2022-03-18T07:53:13.019266Z"
        },
        {
            "step_id": "brunore-ram-qa-100-exports/t2022-03-18T07-53-15-083143269Z_org167600783936_resource_b3dbcccac2eba261ee27a9a12ddf86b23acb5e2351136f1cf8818bf4d7413238/cloudresourcemanager.googleapis.com/Project/0/1647590021443227",
            "step_timestamp": "2022-03-18T07:53:41.452Z"
        },
        {
            "step_id": "//storage.googleapis.com/projects/_/buckets/brunore-ram-qa-100-exports/4216853929642857",
            "step_timestamp": "2022-03-18T07:53:41.452428Z"
        },
        {
            "step_id": "brunore-ram-qa-100-exports/t2022-03-18T07-53-15-083143269Z_org167600783936_resource_b3dbcccac2eba261ee27a9a12ddf86b23acb5e2351136f1cf8818bf4d7413238/cloudresourcemanager.googleapis.com/Project/0.1647590021443227.2022-03-18T07_53_41Z.child0/1647590021619590",
            "step_timestamp": "2022-03-18T07:53:41.624Z"
        },
        {
            "step_id": "//storage.googleapis.com/projects/_/buckets/brunore-ram-qa-100-exports/4216850231341178",
            "step_timestamp": "2022-03-18T07:53:41.624539Z"
        },
        {
            "step_id": "//pubsub.googleapis.com/projects/brunore-ram-qa-100/topics/caiFeed/4216845457069912",
            "step_timestamp": "2022-03-18T07:53:41.853Z"
        }
    ],
    "window": {
        "startTime": "2021-06-21T12:22:02.335476Z"
    }
}